test_run_dir/Top_File_Test/TopFile.vcd
$version Generated by VerilatedVcd $end
$date Thu Mar 31 18:37:49 2022
 $end
$timescale   1ns $end

 $scope module TOP $end
  $var wire  1 "K clock $end
  $var wire 32 "M io_RegOut [31:0] $end
  $var wire  1 "L reset $end
  $scope module TopFile $end
   $var wire 32 ? ImmediateGeneration_io_i_imm [31:0] $end
   $var wire 32 : ImmediateGeneration_io_instr [31:0] $end
   $var wire 32 f ImmediateGeneration_io_pc [31:0] $end
   $var wire 32 ; ImmediateGeneration_io_s_imm [31:0] $end
   $var wire 32 < ImmediateGeneration_io_sb_imm [31:0] $end
   $var wire 32 > ImmediateGeneration_io_u_imm [31:0] $end
   $var wire 32 = ImmediateGeneration_io_uj_imm [31:0] $end
   $var wire  1 "K Memory_clock $end
   $var wire 10 g Memory_io_addr [9:0] $end
   $var wire 32 : Memory_io_inst [31:0] $end
   $var wire  3 ( aluControl_io_Aluop [2:0] $end
   $var wire  5 # aluControl_io_control [4:0] $end
   $var wire  3 * aluControl_io_func3 [2:0] $end
   $var wire  1 ) aluControl_io_func7 $end
   $var wire  5 # alu_io_AluControl [4:0] $end
   $var wire  1 & alu_io_Branch $end
   $var wire 32 $ alu_io_in1 [31:0] $end
   $var wire 32 % alu_io_in2 [31:0] $end
   $var wire 32 ' alu_io_out [31:0] $end
   $var wire  1 "K clock $end
   $var wire  3 ( control_io_AluOp [2:0] $end
   $var wire  1 . control_io_Branch $end
   $var wire  2 3 control_io_ExtendSel [1:0] $end
   $var wire  1 6 control_io_FRegRead $end
   $var wire  1 5 control_io_FRegWrite $end
   $var wire  1 / control_io_MemRead $end
   $var wire  1 / control_io_MemToReg $end
   $var wire  1 - control_io_MemWrite $end
   $var wire  2 4 control_io_NextPcSel [1:0] $end
   $var wire  2 1 control_io_Operand_aSel [1:0] $end
   $var wire  1 2 control_io_Operand_bSel $end
   $var wire  1 0 control_io_RegWrite $end
   $var wire  5 , control_io_func5 [4:0] $end
   $var wire  7 + control_io_opCode [6:0] $end
   $var wire  1 "K dataMemory_clock $end
   $var wire 32 9 dataMemory_io_addr [31:0] $end
   $var wire 32 7 dataMemory_io_data_in [31:0] $end
   $var wire 32 8 dataMemory_io_data_out [31:0] $end
   $var wire  1 / dataMemory_io_rd_en $end
   $var wire  1 - dataMemory_io_wr_en $end
   $var wire  1 "K freg_clock $end
   $var wire  5 C freg_io_raddr1 [4:0] $end
   $var wire  5 D freg_io_raddr2 [4:0] $end
   $var wire 32 G freg_io_rdata1 [31:0] $end
   $var wire 32 H freg_io_rdata2 [31:0] $end
   $var wire  1 5 freg_io_regEn $end
   $var wire  5 E freg_io_waddr [4:0] $end
   $var wire 32 I freg_io_wdata [31:0] $end
   $var wire 32 "M io_RegOut [31:0] $end
   $var wire 32 ? jalr_io_Type [31:0] $end
   $var wire 32 A jalr_io_out [31:0] $end
   $var wire 32 @ jalr_io_rs1 [31:0] $end
   $var wire  1 "K pc_clock $end
   $var wire 32 B pc_io_in [31:0] $end
   $var wire 32 f pc_io_pc [31:0] $end
   $var wire 32 h pc_io_pcPlus4 [31:0] $end
   $var wire  1 "L pc_reset $end
   $var wire  1 "K registerFile_clock $end
   $var wire  5 C registerFile_io_raddr1 [4:0] $end
   $var wire  5 D registerFile_io_raddr2 [4:0] $end
   $var wire 32 @ registerFile_io_rdata1 [31:0] $end
   $var wire 32 7 registerFile_io_rdata2 [31:0] $end
   $var wire  1 0 registerFile_io_regEn $end
   $var wire  5 E registerFile_io_waddr [4:0] $end
   $var wire 32 F registerFile_io_wdata [31:0] $end
   $var wire  1 "L reset $end
   $scope module ImmediateGeneration $end
    $var wire 32 ? io_i_imm [31:0] $end
    $var wire 20 d io_i_imm_hi [19:0] $end
    $var wire 12 e io_i_imm_lo [11:0] $end
    $var wire 32 : io_instr [31:0] $end
    $var wire 32 f io_pc [31:0] $end
    $var wire 32 ; io_s_imm [31:0] $end
    $var wire 20 W io_s_imm_hi [19:0] $end
    $var wire 32 < io_sb_imm [31:0] $end
    $var wire 19 ] io_sb_imm_hi [18:0] $end
    $var wire 32 > io_u_imm [31:0] $end
    $var wire 12 b io_u_imm_hi [11:0] $end
    $var wire 20 c io_u_imm_lo [19:0] $end
    $var wire 32 = io_uj_imm [31:0] $end
    $var wire 12 b io_uj_imm_hi [11:0] $end
    $var wire 12 V s_imm13 [11:0] $end
    $var wire  7 U s_imm13_hi [6:0] $end
    $var wire  5 E s_imm13_lo [4:0] $end
    $var wire 13 \ sb_imm13 [12:0] $end
    $var wire  1 X sb_imm13_hi_hi_hi $end
    $var wire  1 Y sb_imm13_hi_hi_lo $end
    $var wire  6 Z sb_imm13_hi_lo [5:0] $end
    $var wire  4 [ sb_imm13_lo_hi [3:0] $end
    $var wire 21 a uj_imm21 [20:0] $end
    $var wire  8 ^ uj_imm21_hi_hi_lo [7:0] $end
    $var wire  1 _ uj_imm21_hi_lo $end
    $var wire 10 ` uj_imm21_lo_hi [9:0] $end
   $upscope $end
   $scope module Memory $end
    $var wire  1 "K clock $end
    $var wire 10 g imem_io_inst_MPORT_addr [9:0] $end
    $var wire 32 : imem_io_inst_MPORT_data [31:0] $end
    $var wire 10 g io_addr [9:0] $end
    $var wire 32 : io_inst [31:0] $end
    $scope module BindsTo_0_InstructionMemory_Inst $end
     $var wire  1 "K clock $end
     $var wire 10 g io_addr [9:0] $end
     $var wire 32 : io_inst [31:0] $end
    $upscope $end
   $upscope $end
   $scope module alu $end
    $var wire  5 # io_AluControl [4:0] $end
    $var wire  1 & io_Branch $end
    $var wire 32 $ io_in1 [31:0] $end
    $var wire 32 % io_in2 [31:0] $end
    $var wire 32 ' io_out [31:0] $end
   $upscope $end
   $scope module aluControl $end
    $var wire  3 ( io_Aluop [2:0] $end
    $var wire  5 # io_control [4:0] $end
    $var wire  3 * io_func3 [2:0] $end
    $var wire  1 ) io_func7 $end
   $upscope $end
   $scope module control $end
    $var wire  3 ( controlDec_io_AluOp [2:0] $end
    $var wire  1 . controlDec_io_Branch $end
    $var wire  2 3 controlDec_io_ExtendSel [1:0] $end
    $var wire  1 6 controlDec_io_FRegRead $end
    $var wire  1 5 controlDec_io_FRegWrite $end
    $var wire  1 S controlDec_io_Fadd $end
    $var wire  1 R controlDec_io_Fmv $end
    $var wire  1 N controlDec_io_IType $end
    $var wire  1 P controlDec_io_Jal $end
    $var wire  1 O controlDec_io_Jalr $end
    $var wire  1 K controlDec_io_Load $end
    $var wire  1 Q controlDec_io_Lui $end
    $var wire  1 / controlDec_io_MemRead $end
    $var wire  1 / controlDec_io_MemToReg $end
    $var wire  1 - controlDec_io_MemWrite $end
    $var wire  2 4 controlDec_io_NextPcSel [1:0] $end
    $var wire  2 1 controlDec_io_Operand_aSel [1:0] $end
    $var wire  1 2 controlDec_io_Operand_bSel $end
    $var wire  1 J controlDec_io_RType $end
    $var wire  1 0 controlDec_io_RegWrite $end
    $var wire  1 M controlDec_io_SBType $end
    $var wire  1 L controlDec_io_Store $end
    $var wire  3 ( io_AluOp [2:0] $end
    $var wire  1 . io_Branch $end
    $var wire  2 3 io_ExtendSel [1:0] $end
    $var wire  1 6 io_FRegRead $end
    $var wire  1 5 io_FRegWrite $end
    $var wire  1 / io_MemRead $end
    $var wire  1 / io_MemToReg $end
    $var wire  1 - io_MemWrite $end
    $var wire  2 4 io_NextPcSel [1:0] $end
    $var wire  2 1 io_Operand_aSel [1:0] $end
    $var wire  1 2 io_Operand_bSel $end
    $var wire  1 0 io_RegWrite $end
    $var wire  5 , io_func5 [4:0] $end
    $var wire  7 + io_opCode [6:0] $end
    $var wire  1 M typeDec_io_Branch $end
    $var wire  1 S typeDec_io_Fadd $end
    $var wire  1 R typeDec_io_Fmv $end
    $var wire  1 N typeDec_io_IType $end
    $var wire  1 P typeDec_io_Jal $end
    $var wire  1 O typeDec_io_Jalr $end
    $var wire  1 K typeDec_io_Load $end
    $var wire  1 Q typeDec_io_Lui $end
    $var wire  1 J typeDec_io_RType $end
    $var wire  1 L typeDec_io_Store $end
    $var wire  5 , typeDec_io_func5 [4:0] $end
    $var wire  7 + typeDec_io_opCode [6:0] $end
    $scope module controlDec $end
     $var wire  3 ( io_AluOp [2:0] $end
     $var wire  1 . io_Branch $end
     $var wire  2 3 io_ExtendSel [1:0] $end
     $var wire  1 6 io_FRegRead $end
     $var wire  1 5 io_FRegWrite $end
     $var wire  1 S io_Fadd $end
     $var wire  1 R io_Fmv $end
     $var wire  1 N io_IType $end
     $var wire  1 P io_Jal $end
     $var wire  1 O io_Jalr $end
     $var wire  1 K io_Load $end
     $var wire  1 Q io_Lui $end
     $var wire  1 / io_MemRead $end
     $var wire  1 / io_MemToReg $end
     $var wire  1 - io_MemWrite $end
     $var wire  2 4 io_NextPcSel [1:0] $end
     $var wire  2 1 io_Operand_aSel [1:0] $end
     $var wire  1 2 io_Operand_bSel $end
     $var wire  1 J io_RType $end
     $var wire  1 0 io_RegWrite $end
     $var wire  1 M io_SBType $end
     $var wire  1 L io_Store $end
    $upscope $end
    $scope module typeDec $end
     $var wire  1 M io_Branch $end
     $var wire  1 S io_Fadd $end
     $var wire  1 R io_Fmv $end
     $var wire  1 N io_IType $end
     $var wire  1 P io_Jal $end
     $var wire  1 O io_Jalr $end
     $var wire  1 K io_Load $end
     $var wire  1 Q io_Lui $end
     $var wire  1 J io_RType $end
     $var wire  1 L io_Store $end
     $var wire  5 , io_func5 [4:0] $end
     $var wire  7 + io_opCode [6:0] $end
    $upscope $end
   $upscope $end
   $scope module dataMemory $end
    $var wire  1 "K clock $end
    $var wire 32 9 io_addr [31:0] $end
    $var wire 32 7 io_data_in [31:0] $end
    $var wire 32 8 io_data_out [31:0] $end
    $var wire  1 / io_rd_en $end
    $var wire  1 - io_wr_en $end
    $var wire 10 T memory_MPORT_addr [9:0] $end
    $var wire 32 7 memory_MPORT_data [31:0] $end
    $var wire  1 - memory_MPORT_en $end
    $var wire  1 "N memory_MPORT_mask $end
    $var wire 10 T memory_io_data_out_MPORT_addr [9:0] $end
    $var wire 32 8 memory_io_data_out_MPORT_data [31:0] $end
   $upscope $end
   $scope module freg $end
    $var wire  1 "K clock $end
    $var wire  5 C io_raddr1 [4:0] $end
    $var wire  5 D io_raddr2 [4:0] $end
    $var wire 32 G io_rdata1 [31:0] $end
    $var wire 32 H io_rdata2 [31:0] $end
    $var wire  1 5 io_regEn $end
    $var wire  5 E io_waddr [4:0] $end
    $var wire 32 I io_wdata [31:0] $end
    $var wire 32 "+ regs_0 [31:0] $end
    $var wire 32 ", regs_1 [31:0] $end
    $var wire 32 "5 regs_10 [31:0] $end
    $var wire 32 "6 regs_11 [31:0] $end
    $var wire 32 "7 regs_12 [31:0] $end
    $var wire 32 "8 regs_13 [31:0] $end
    $var wire 32 "9 regs_14 [31:0] $end
    $var wire 32 ": regs_15 [31:0] $end
    $var wire 32 "; regs_16 [31:0] $end
    $var wire 32 "< regs_17 [31:0] $end
    $var wire 32 "= regs_18 [31:0] $end
    $var wire 32 "> regs_19 [31:0] $end
    $var wire 32 "- regs_2 [31:0] $end
    $var wire 32 "? regs_20 [31:0] $end
    $var wire 32 "@ regs_21 [31:0] $end
    $var wire 32 "A regs_22 [31:0] $end
    $var wire 32 "B regs_23 [31:0] $end
    $var wire 32 "C regs_24 [31:0] $end
    $var wire 32 "D regs_25 [31:0] $end
    $var wire 32 "E regs_26 [31:0] $end
    $var wire 32 "F regs_27 [31:0] $end
    $var wire 32 "G regs_28 [31:0] $end
    $var wire 32 "H regs_29 [31:0] $end
    $var wire 32 ". regs_3 [31:0] $end
    $var wire 32 "I regs_30 [31:0] $end
    $var wire 32 "J regs_31 [31:0] $end
    $var wire 32 "/ regs_4 [31:0] $end
    $var wire 32 "0 regs_5 [31:0] $end
    $var wire 32 "1 regs_6 [31:0] $end
    $var wire 32 "2 regs_7 [31:0] $end
    $var wire 32 "3 regs_8 [31:0] $end
    $var wire 32 "4 regs_9 [31:0] $end
   $upscope $end
   $scope module jalr $end
    $var wire 32 ? io_Type [31:0] $end
    $var wire 32 A io_out [31:0] $end
    $var wire 32 @ io_rs1 [31:0] $end
   $upscope $end
   $scope module pc $end
    $var wire  1 "K clock $end
    $var wire 32 B io_in [31:0] $end
    $var wire 32 f io_pc [31:0] $end
    $var wire 32 h io_pcPlus4 [31:0] $end
    $var wire 32 f reg_ [31:0] $end
    $var wire  1 "L reset $end
   $upscope $end
   $scope module registerFile $end
    $var wire  1 "K clock $end
    $var wire  5 C io_raddr1 [4:0] $end
    $var wire  5 D io_raddr2 [4:0] $end
    $var wire 32 @ io_rdata1 [31:0] $end
    $var wire 32 7 io_rdata2 [31:0] $end
    $var wire  1 0 io_regEn $end
    $var wire  5 E io_waddr [4:0] $end
    $var wire 32 F io_wdata [31:0] $end
    $var wire 32 i regs_0 [31:0] $end
    $var wire 32 j regs_1 [31:0] $end
    $var wire 32 s regs_10 [31:0] $end
    $var wire 32 t regs_11 [31:0] $end
    $var wire 32 u regs_12 [31:0] $end
    $var wire 32 v regs_13 [31:0] $end
    $var wire 32 w regs_14 [31:0] $end
    $var wire 32 x regs_15 [31:0] $end
    $var wire 32 y regs_16 [31:0] $end
    $var wire 32 z regs_17 [31:0] $end
    $var wire 32 { regs_18 [31:0] $end
    $var wire 32 | regs_19 [31:0] $end
    $var wire 32 k regs_2 [31:0] $end
    $var wire 32 } regs_20 [31:0] $end
    $var wire 32 ~ regs_21 [31:0] $end
    $var wire 32 "! regs_22 [31:0] $end
    $var wire 32 "" regs_23 [31:0] $end
    $var wire 32 "# regs_24 [31:0] $end
    $var wire 32 "$ regs_25 [31:0] $end
    $var wire 32 "% regs_26 [31:0] $end
    $var wire 32 "& regs_27 [31:0] $end
    $var wire 32 "' regs_28 [31:0] $end
    $var wire 32 "( regs_29 [31:0] $end
    $var wire 32 l regs_3 [31:0] $end
    $var wire 32 ") regs_30 [31:0] $end
    $var wire 32 "* regs_31 [31:0] $end
    $var wire 32 m regs_4 [31:0] $end
    $var wire 32 n regs_5 [31:0] $end
    $var wire 32 o regs_6 [31:0] $end
    $var wire 32 p regs_7 [31:0] $end
    $var wire 32 q regs_8 [31:0] $end
    $var wire 32 r regs_9 [31:0] $end
   $upscope $end
  $upscope $end
 $upscope $end
$enddefinitions $end


#0
b00000 #
b00000000000000000000000000000000 $
b00000000000000000000000000000110 %
0&
b00000000000000000000000000000110 '
b001 (
0)
b000 *
b0010011 +
b00000 ,
0-
0.
0/
10
b00 1
12
b00 3
b00 4
05
06
b00000000000000000000000000000000 7
b00000000000000000000000000000000 8
b00000000000000000000000000000001 9
b00000000011000000000010000010011 :
b00000000000000000000000000001000 ;
b00000000000000000000000000001000 <
b00000000000000000000000000000110 =
b00000000011000000000000000000000 >
b00000000000000000000000000000110 ?
b00000000000000000000000000000000 @
b00000000000000000000000000000110 A
b00000000000000000000000000000100 B
b00000 C
b00110 D
b01000 E
b00000000000000000000000000000110 F
b00000000000000000000000000000000 G
b00000000000000000000000000000000 H
b00000000000000000000000000000000 I
0J
0K
0L
0M
1N
0O
0P
0Q
0R
0S
b0000000001 T
b0000000 U
b000000001000 V
b00000000000000000000 W
0X
0Y
b000000 Z
b0100 [
b0000000001000 \
b0000000000000000000 ]
b00000000 ^
0_
b0000000011 `
b000000000000000000110 a
b000000000000 b
b00000000011000000000 c
b00000000000000000000 d
b000000000110 e
b00000000000000000000000000000000 f
b0000000000 g
b00000000000000000000000000000100 h
b00000000000000000000000000000000 i
b00000000000000000000000000000000 j
b00000000000000000000000000000000 k
b00000000000000000000000000000000 l
b00000000000000000000000000000000 m
b00000000000000000000000000000000 n
b00000000000000000000000000000000 o
b00000000000000000000000000000000 p
b00000000000000000000000000000000 q
b00000000000000000000000000000000 r
b00000000000000000000000000000000 s
b00000000000000000000000000000000 t
b00000000000000000000000000000000 u
b00000000000000000000000000000000 v
b00000000000000000000000000000000 w
b00000000000000000000000000000000 x
b00000000000000000000000000000000 y
b00000000000000000000000000000000 z
b00000000000000000000000000000000 {
b00000000000000000000000000000000 |
b00000000000000000000000000000000 }
b00000000000000000000000000000000 ~
b00000000000000000000000000000000 "!
b00000000000000000000000000000000 ""
b00000000000000000000000000000000 "#
b00000000000000000000000000000000 "$
b00000000000000000000000000000000 "%
b00000000000000000000000000000000 "&
b00000000000000000000000000000000 "'
b00000000000000000000000000000000 "(
b00000000000000000000000000000000 ")
b00000000000000000000000000000000 "*
b00000000000000000000000000000000 "+
b00000000000000000000000000000000 ",
b00000000000000000000000000000000 "-
b00000000000000000000000000000000 ".
b00000000000000000000000000000000 "/
b00000000000000000000000000000000 "0
b00000000000000000000000000000000 "1
b00000000000000000000000000000000 "2
b00000000000000000000000000000000 "3
b00000000000000000000000000000000 "4
b00000000000000000000000000000000 "5
b00000000000000000000000000000000 "6
b00000000000000000000000000000000 "7
b00000000000000000000000000000000 "8
b00000000000000000000000000000000 "9
b00000000000000000000000000000000 ":
b00000000000000000000000000000000 ";
b00000000000000000000000000000000 "<
b00000000000000000000000000000000 "=
b00000000000000000000000000000000 ">
b00000000000000000000000000000000 "?
b00000000000000000000000000000000 "@
b00000000000000000000000000000000 "A
b00000000000000000000000000000000 "B
b00000000000000000000000000000000 "C
b00000000000000000000000000000000 "D
b00000000000000000000000000000000 "E
b00000000000000000000000000000000 "F
b00000000000000000000000000000000 "G
b00000000000000000000000000000000 "H
b00000000000000000000000000000000 "I
b00000000000000000000000000000000 "J
0"K
1"L
b00000000000000000000000000000110 "M
1"N
#1
b00000000000000000000000000000110 q
1"K
#2
0"K
0"L
#3
b01000 #
b00000000000000000000000000000110 $
b00000000000000000000000000000000 %
b000 (
1)
b1010011 +
b11110 ,
00
02
15
b11110000000001000000010011010011 :
b11111111111111111111111100001001 ;
b11111111111111111111111100001100 <
b11111111111101000000011100000100 =
b11110000000001000000000000000000 >
b11111111111111111111111100000000 ?
b00000000000000000000000000000110 @
b11111111111111111111111100000110 A
b00000000000000000000000000001000 B
b01000 C
b00000 D
b01001 E
b00000000000000000000000000000110 I
0N
1R
b1111000 U
b111100001001 V
b11111111111111111111 W
1X
1Y
b111000 Z
b1111100001000 \
b1111111111111111111 ]
b01000000 ^
b1110000000 `
b101000000011100000000 a
b111111111111 b
b11110000000001000000 c
b11111111111111111111 d
b111100000000 e
b00000000000000000000000000000100 f
b0000000001 g
b00000000000000000000000000001000 h
1"K
#4
0"K
#5
b11110000000001000000010101010011 :
b11111111111111111111111100001010 ;
b11111111111111111111011100010010 <
b11111111111101000000011100001000 =
b00000000000000000000000000001100 B
b01010 E
b111100001010 V
0Y
b0101 [
b1011100001010 \
b00000000000000000000000000001000 f
b0000000010 g
b00000000000000000000000000001100 h
b00000000000000000000000000000110 "4
1"K
#6
0"K
#7
b00000 #
b00000000000000000000000000000110 %
b00000000000000000000000000001100 '
0)
b00000 ,
16
b00000000000000000000000000000011 9
b00000000101001001000010111010011 :
b00000000000000000000000000001011 ;
b00000000000000000000100000010110 <
b00000000000001001000000000010110 =
b00000000101001001000000000000000 >
b00000000000000000000000000001010 ?
b00000000000000000000000000000000 @
b00000000000000000000000000001010 A
b00000000000000000000000000010000 B
b01001 C
b01010 D
b01011 E
b00000000000000000000000000001100 F
b00000000000000000000000000000110 G
b00000000000000000000000000000110 H
b00000000000000000000000000001100 I
0R
1S
b0000000011 T
b0000000 U
b000000001011 V
b00000000000000000000 W
0X
1Y
b000000 Z
b0100000001010 \
b0000000000000000000 ]
b01001000 ^
b0000000101 `
b001001000000000001010 a
b000000000000 b
b00000000101001001000 c
b00000000000000000000 d
b000000001010 e
b00000000000000000000000000001100 f
b0000000011 g
b00000000000000000000000000010000 h
b00000000000000000000000000000110 "5
1"K
b00000000000000000000000000001100 "M
#8
0"K
#9
b00000000000000000000000000000000 $
b00000000000000000000000000000000 %
b00000000000000000000000000000000 '
b0000000 +
05
06
b00000000000000000000000000000000 9
b00000000000000000000000000000000 :
b00000000000000000000000000000000 ;
b00000000000000000000000000010000 <
b00000000000000000000000000010000 =
b00000000000000000000000000000000 >
b00000000000000000000000000000000 ?
b00000000000000000000000000000000 A
b00000000000000000000000000010100 B
b00000 C
b00000 D
b00000 E
b00000000000000000000000000000000 F
b00000000000000000000000000000000 G
b00000000000000000000000000000000 H
b00000000000000000000000000000000 I
0S
b0000000000 T
b000000000000 V
0Y
b0000 [
b0000000000000 \
b00000000 ^
b0000000000 `
b000000000000000000000 a
b00000000000000000000 c
b000000000000 e
b00000000000000000000000000010000 f
b0000000100 g
b00000000000000000000000000010100 h
b00000000000000000000000000001100 "6
1"K
b00000000000000000000000000000000 "M
#10
0"K
#11
b00000000000000000000000000010100 <
b00000000000000000000000000010100 =
b00000000000000000000000000011000 B
b00000000000000000000000000010100 f
b0000000101 g
b00000000000000000000000000011000 h
1"K
#12
0"K
#13
b00000000000000000000000000011000 <
b00000000000000000000000000011000 =
b00000000000000000000000000011100 B
b00000000000000000000000000011000 f
b0000000110 g
b00000000000000000000000000011100 h
1"K
#14
0"K
#15
b00000000000000000000000000011100 <
b00000000000000000000000000011100 =
b00000000000000000000000000100000 B
b00000000000000000000000000011100 f
b0000000111 g
b00000000000000000000000000100000 h
1"K
#16
0"K
#17
b00000000000000000000000000100000 <
b00000000000000000000000000100000 =
b00000000000000000000000000100100 B
b00000000000000000000000000100000 f
b0000001000 g
b00000000000000000000000000100100 h
1"K
#18
0"K
#19
b00000000000000000000000000100100 <
b00000000000000000000000000100100 =
b00000000000000000000000000101000 B
b00000000000000000000000000100100 f
b0000001001 g
b00000000000000000000000000101000 h
1"K
#20
0"K
#21
b00000000000000000000000000101000 <
b00000000000000000000000000101000 =
b00000000000000000000000000101100 B
b00000000000000000000000000101000 f
b0000001010 g
b00000000000000000000000000101100 h
1"K
#22
0"K
#23
b00000000000000000000000000101100 <
b00000000000000000000000000101100 =
b00000000000000000000000000110000 B
b00000000000000000000000000101100 f
b0000001011 g
b00000000000000000000000000110000 h
1"K
#24
0"K
#25
b00000000000000000000000000110000 <
b00000000000000000000000000110000 =
b00000000000000000000000000110100 B
b00000000000000000000000000110000 f
b0000001100 g
b00000000000000000000000000110100 h
1"K
#26
0"K
#27
b00000000000000000000000000110100 <
b00000000000000000000000000110100 =
b00000000000000000000000000111000 B
b00000000000000000000000000110100 f
b0000001101 g
b00000000000000000000000000111000 h
1"K
#28
0"K
#29
b00000000000000000000000000111000 <
b00000000000000000000000000111000 =
b00000000000000000000000000111100 B
b00000000000000000000000000111000 f
b0000001110 g
b00000000000000000000000000111100 h
1"K
#30
0"K
#31
b00000000000000000000000000111100 <
b00000000000000000000000000111100 =
b00000000000000000000000001000000 B
b00000000000000000000000000111100 f
b0000001111 g
b00000000000000000000000001000000 h
1"K
#32
0"K
#33
b00000000000000000000000001000000 <
b00000000000000000000000001000000 =
b00000000000000000000000001000100 B
b00000000000000000000000001000000 f
b0000010000 g
b00000000000000000000000001000100 h
1"K
#34
0"K
#35
b00000000000000000000000001000100 <
b00000000000000000000000001000100 =
b00000000000000000000000001001000 B
b00000000000000000000000001000100 f
b0000010001 g
b00000000000000000000000001001000 h
1"K
#36
0"K
#37
b00000000000000000000000001001000 <
b00000000000000000000000001001000 =
b00000000000000000000000001001100 B
b00000000000000000000000001001000 f
b0000010010 g
b00000000000000000000000001001100 h
1"K
#38
0"K
#39
b00000000000000000000000001001100 <
b00000000000000000000000001001100 =
b00000000000000000000000001010000 B
b00000000000000000000000001001100 f
b0000010011 g
b00000000000000000000000001010000 h
1"K
#40
0"K
#41
b00000000000000000000000001010000 <
b00000000000000000000000001010000 =
b00000000000000000000000001010100 B
b00000000000000000000000001010000 f
b0000010100 g
b00000000000000000000000001010100 h
1"K
#42
0"K
#43
b00000000000000000000000001010100 <
b00000000000000000000000001010100 =
b00000000000000000000000001011000 B
b00000000000000000000000001010100 f
b0000010101 g
b00000000000000000000000001011000 h
1"K
#44
0"K
#45
b00000000000000000000000001011000 <
b00000000000000000000000001011000 =
b00000000000000000000000001011100 B
b00000000000000000000000001011000 f
b0000010110 g
b00000000000000000000000001011100 h
1"K
#46
0"K
#47
b00000000000000000000000001011100 <
b00000000000000000000000001011100 =
b00000000000000000000000001100000 B
b00000000000000000000000001011100 f
b0000010111 g
b00000000000000000000000001100000 h
1"K
#48
0"K
#49
b00000000000000000000000001100000 <
b00000000000000000000000001100000 =
b00000000000000000000000001100100 B
b00000000000000000000000001100000 f
b0000011000 g
b00000000000000000000000001100100 h
1"K
#50
0"K
#51
b00000000000000000000000001100100 <
b00000000000000000000000001100100 =
b00000000000000000000000001101000 B
b00000000000000000000000001100100 f
b0000011001 g
b00000000000000000000000001101000 h
1"K
#52
0"K
#53
b00000000000000000000000001101000 <
b00000000000000000000000001101000 =
b00000000000000000000000001101100 B
b00000000000000000000000001101000 f
b0000011010 g
b00000000000000000000000001101100 h
1"K
#54
0"K
#55
b00000000000000000000000001101100 <
b00000000000000000000000001101100 =
b00000000000000000000000001110000 B
b00000000000000000000000001101100 f
b0000011011 g
b00000000000000000000000001110000 h
1"K
#56
0"K
#57
b00000000000000000000000001110000 <
b00000000000000000000000001110000 =
b00000000000000000000000001110100 B
b00000000000000000000000001110000 f
b0000011100 g
b00000000000000000000000001110100 h
1"K
#58
0"K
#59
b00000000000000000000000001110100 <
b00000000000000000000000001110100 =
b00000000000000000000000001111000 B
b00000000000000000000000001110100 f
b0000011101 g
b00000000000000000000000001111000 h
1"K
#60
0"K
#61
b00000000000000000000000001111000 <
b00000000000000000000000001111000 =
b00000000000000000000000001111100 B
b00000000000000000000000001111000 f
b0000011110 g
b00000000000000000000000001111100 h
1"K
#62
0"K
#63
b00000000000000000000000001111100 <
b00000000000000000000000001111100 =
b00000000000000000000000010000000 B
b00000000000000000000000001111100 f
b0000011111 g
b00000000000000000000000010000000 h
1"K
#64
0"K
#65
b00000000000000000000000010000000 <
b00000000000000000000000010000000 =
b00000000000000000000000010000100 B
b00000000000000000000000010000000 f
b0000100000 g
b00000000000000000000000010000100 h
1"K
#66
0"K
#67
b00000000000000000000000010000100 <
b00000000000000000000000010000100 =
b00000000000000000000000010001000 B
b00000000000000000000000010000100 f
b0000100001 g
b00000000000000000000000010001000 h
1"K
#68
0"K
#69
b00000000000000000000000010001000 <
b00000000000000000000000010001000 =
b00000000000000000000000010001100 B
b00000000000000000000000010001000 f
b0000100010 g
b00000000000000000000000010001100 h
1"K
#70
0"K
#71
b00000000000000000000000010001100 <
b00000000000000000000000010001100 =
b00000000000000000000000010010000 B
b00000000000000000000000010001100 f
b0000100011 g
b00000000000000000000000010010000 h
1"K
#72
0"K
#73
b00000000000000000000000010010000 <
b00000000000000000000000010010000 =
b00000000000000000000000010010100 B
b00000000000000000000000010010000 f
b0000100100 g
b00000000000000000000000010010100 h
1"K
#74
0"K
#75
b00000000000000000000000010010100 <
b00000000000000000000000010010100 =
b00000000000000000000000010011000 B
b00000000000000000000000010010100 f
b0000100101 g
b00000000000000000000000010011000 h
1"K
#76
0"K
#77
b00000000000000000000000010011000 <
b00000000000000000000000010011000 =
b00000000000000000000000010011100 B
b00000000000000000000000010011000 f
b0000100110 g
b00000000000000000000000010011100 h
1"K
#78
0"K
#79
b00000000000000000000000010011100 <
b00000000000000000000000010011100 =
b00000000000000000000000010100000 B
b00000000000000000000000010011100 f
b0000100111 g
b00000000000000000000000010100000 h
1"K
#80
0"K
#81
b00000000000000000000000010100000 <
b00000000000000000000000010100000 =
b00000000000000000000000010100100 B
b00000000000000000000000010100000 f
b0000101000 g
b00000000000000000000000010100100 h
1"K
#82
0"K
#83
b00000000000000000000000010100100 <
b00000000000000000000000010100100 =
b00000000000000000000000010101000 B
b00000000000000000000000010100100 f
b0000101001 g
b00000000000000000000000010101000 h
1"K
#84
0"K
#85
b00000000000000000000000010101000 <
b00000000000000000000000010101000 =
b00000000000000000000000010101100 B
b00000000000000000000000010101000 f
b0000101010 g
b00000000000000000000000010101100 h
1"K
#86
0"K
#87
b00000000000000000000000010101100 <
b00000000000000000000000010101100 =
b00000000000000000000000010110000 B
b00000000000000000000000010101100 f
b0000101011 g
b00000000000000000000000010110000 h
1"K
#88
0"K
#89
b00000000000000000000000010110000 <
b00000000000000000000000010110000 =
b00000000000000000000000010110100 B
b00000000000000000000000010110000 f
b0000101100 g
b00000000000000000000000010110100 h
1"K
#90
0"K
#91
b00000000000000000000000010110100 <
b00000000000000000000000010110100 =
b00000000000000000000000010111000 B
b00000000000000000000000010110100 f
b0000101101 g
b00000000000000000000000010111000 h
1"K
#92
0"K
#93
b00000000000000000000000010111000 <
b00000000000000000000000010111000 =
b00000000000000000000000010111100 B
b00000000000000000000000010111000 f
b0000101110 g
b00000000000000000000000010111100 h
1"K
#94
0"K
#95
b00000000000000000000000010111100 <
b00000000000000000000000010111100 =
b00000000000000000000000011000000 B
b00000000000000000000000010111100 f
b0000101111 g
b00000000000000000000000011000000 h
1"K
#96
0"K
#97
b00000000000000000000000011000000 <
b00000000000000000000000011000000 =
b00000000000000000000000011000100 B
b00000000000000000000000011000000 f
b0000110000 g
b00000000000000000000000011000100 h
1"K
#98
0"K
#99
b00000000000000000000000011000100 <
b00000000000000000000000011000100 =
b00000000000000000000000011001000 B
b00000000000000000000000011000100 f
b0000110001 g
b00000000000000000000000011001000 h
1"K
#100
0"K
#101
b00000000000000000000000011001000 <
b00000000000000000000000011001000 =
b00000000000000000000000011001100 B
b00000000000000000000000011001000 f
b0000110010 g
b00000000000000000000000011001100 h
1"K
#102
0"K
#103
b00000000000000000000000011001100 <
b00000000000000000000000011001100 =
b00000000000000000000000011010000 B
b00000000000000000000000011001100 f
b0000110011 g
b00000000000000000000000011010000 h
1"K
#104
0"K
